[
  {
    "codigo": "CL122",
    "tipo": "provincia",
    "nombre": "Antártica Chilena",
    "lat": -55.028,
    "lng": -67.6318,
    "url": "",
    "codigo_padre": "CL12",
    "poblacion": 2120
  },
  {
    "codigo": "CL021",
    "tipo": "provincia",
    "nombre": "Antofagasta",
    "lat": -24.5646,
    "lng": -69.2877,
    "url": "",
    "codigo_padre": "CL02",
    "poblacion": 455904
  },
  {
    "codigo": "CL082",
    "tipo": "provincia",
    "nombre": "Arauco",
    "lat": -37.7277,
    "lng": -73.3075,
    "url": "",
    "codigo_padre": "CL08",
    "poblacion": 176547
  },
  {
    "codigo": "CL151",
    "tipo": "provincia",
    "nombre": "Arica",
    "lat": -18.7139,
    "lng": -69.7522,
    "url": "",
    "codigo_padre": "CL15",
    "poblacion": 248785
  },
  {
    "codigo": "CL112",
    "tipo": "provincia",
    "nombre": "Aysén",
    "lat": -46.3848,
    "lng": -72.2955,
    "url": "",
    "codigo_padre": "CL11",
    "poblacion": 32429
  },
  {
    "codigo": "CL083",
    "tipo": "provincia",
    "nombre": "Biobío",
    "lat": -37.4739,
    "lng": -72.1572,
    "url": "",
    "codigo_padre": "CL08",
    "poblacion": 423359
  },
  {
    "codigo": "CL061",
    "tipo": "provincia",
    "nombre": "Cachapoal",
    "lat": -36.45,
    "lng": -71.7333,
    "url": "",
    "codigo_padre": "CL06",
    "poblacion": 704786
  },
  {
    "codigo": "CL113",
    "tipo": "provincia",
    "nombre": "Capitán Prat",
    "lat": -47.9232,
    "lng": -72.9245,
    "url": "",
    "codigo_padre": "CL11",
    "poblacion": 4918
  },
  {
    "codigo": "CL062",
    "tipo": "provincia",
    "nombre": "Cardenal Caro",
    "lat": -34.2812,
    "lng": -71.8571,
    "url": "",
    "codigo_padre": "CL06",
    "poblacion": 48646
  },
  {
    "codigo": "CL072",
    "tipo": "provincia",
    "nombre": "Cauquenes",
    "lat": -35.9738,
    "lng": -72.3142,
    "url": "",
    "codigo_padre": "CL07",
    "poblacion": 61566
  },
  {
    "codigo": "CL091",
    "tipo": "provincia",
    "nombre": "Cautín",
    "lat": -38.727,
    "lng": -72.5989,
    "url": "",
    "codigo_padre": "CL09",
    "poblacion": 799083
  },
  {
    "codigo": "CL133",
    "tipo": "provincia",
    "nombre": "Chacabuco",
    "lat": -33.1503,
    "lng": -70.7132,
    "url": "",
    "codigo_padre": "CL13",
    "poblacion": 328728
  },
  {
    "codigo": "CL032",
    "tipo": "provincia",
    "nombre": "Chañaral",
    "lat": -26.3599,
    "lng": -70.5981,
    "url": "",
    "codigo_padre": "CL03",
    "poblacion": 27522
  },
  {
    "codigo": "CL102",
    "tipo": "provincia",
    "nombre": "Chiloé",
    "lat": -43.117,
    "lng": -73.9984,
    "url": "",
    "codigo_padre": "CL10",
    "poblacion": 181347
  },
  {
    "codigo": "CL042",
    "tipo": "provincia",
    "nombre": "Choapa",
    "lat": -31.8006,
    "lng": -70.9827,
    "url": "",
    "codigo_padre": "CL04",
    "poblacion": 94831
  },
  {
    "codigo": "CL111",
    "tipo": "provincia",
    "nombre": "Coihaique",
    "lat": -45.2865,
    "lng": -71.7792,
    "url": "",
    "codigo_padre": "CL11",
    "poblacion": 62130
  },
  {
    "codigo": "CL063",
    "tipo": "provincia",
    "nombre": "Colchagua",
    "lat": -34.6761,
    "lng": -71.0973,
    "url": "",
    "codigo_padre": "CL06",
    "poblacion": 237631
  },
  {
    "codigo": "CL081",
    "tipo": "provincia",
    "nombre": "Concepción",
    "lat": -36.8148,
    "lng": -73.0293,
    "url": "",
    "codigo_padre": "CL08",
    "poblacion": 1063790
  },
  {
    "codigo": "CL031",
    "tipo": "provincia",
    "nombre": "Copiapó",
    "lat": -27.5765,
    "lng": -70.0269,
    "url": "",
    "codigo_padre": "CL03",
    "poblacion": 205504
  },
  {
    "codigo": "CL132",
    "tipo": "provincia",
    "nombre": "Cordillera",
    "lat": -33.6984,
    "lng": -70.1682,
    "url": "",
    "codigo_padre": "CL13",
    "poblacion": 694986
  },
  {
    "codigo": "CL073",
    "tipo": "provincia",
    "nombre": "Curicó",
    "lat": -35.1704,
    "lng": -70.8954,
    "url": "",
    "codigo_padre": "CL07",
    "poblacion": 312755
  },
  {
    "codigo": "CL161",
    "tipo": "provincia",
    "nombre": "Diguillín",
    "lat": -366.197,
    "lng": -721.014,
    "url": "",
    "codigo_padre": "CL16",
    "poblacion": 341908
  },
  {
    "codigo": "CL022",
    "tipo": "provincia",
    "nombre": "El Loa",
    "lat": -22.3196,
    "lng": -68.5107,
    "url": "",
    "codigo_padre": "CL02",
    "poblacion": 201057
  },
  {
    "codigo": "CL041",
    "tipo": "provincia",
    "nombre": "Elqui",
    "lat": -29.8335,
    "lng": -70.8014,
    "url": "",
    "codigo_padre": "CL04",
    "poblacion": 557048
  },
  {
    "codigo": "CL114",
    "tipo": "provincia",
    "nombre": "General Carrera",
    "lat": -46.557,
    "lng": -72.4123,
    "url": "",
    "codigo_padre": "CL11",
    "poblacion": 7820
  },
  {
    "codigo": "CL033",
    "tipo": "provincia",
    "nombre": "Huasco",
    "lat": -28.5604,
    "lng": -70.6146,
    "url": "",
    "codigo_padre": "CL03",
    "poblacion": 81683
  },
  {
    "codigo": "CL011",
    "tipo": "provincia",
    "nombre": "Iquique",
    "lat": -20.8011,
    "lng": -70.0963,
    "url": "",
    "codigo_padre": "CL01",
    "poblacion": 353462
  },
  {
    "codigo": "CL052",
    "tipo": "provincia",
    "nombre": "Isla de Pascua",
    "lat": -27.1212,
    "lng": -109.366,
    "url": "",
    "codigo_padre": "CL05",
    "poblacion": 8277
  },
  {
    "codigo": "CL162",
    "tipo": "provincia",
    "nombre": "Itata",
    "lat": -367.639,
    "lng": -724.491,
    "url": "",
    "codigo_padre": "CL16",
    "poblacion": 56623
  },
  {
    "codigo": "CL043",
    "tipo": "provincia",
    "nombre": "Limarí",
    "lat": -30.7342,
    "lng": -70.9957,
    "url": "",
    "codigo_padre": "CL04",
    "poblacion": 184217
  },
  {
    "codigo": "CL074",
    "tipo": "provincia",
    "nombre": "Linares",
    "lat": -35.8495,
    "lng": -71.585,
    "url": "",
    "codigo_padre": "CL07",
    "poblacion": 308226
  },
  {
    "codigo": "CL101",
    "tipo": "provincia",
    "nombre": "Llanquihue",
    "lat": -41.453,
    "lng": -72.6135,
    "url": "",
    "codigo_padre": "CL10",
    "poblacion": 442979
  },
  {
    "codigo": "CL053",
    "tipo": "provincia",
    "nombre": "Los Andes",
    "lat": -32.9544,
    "lng": -70.3163,
    "url": "",
    "codigo_padre": "CL05",
    "poblacion": 116481
  },
  {
    "codigo": "CL121",
    "tipo": "provincia",
    "nombre": "Magallanes",
    "lat": -53.6316,
    "lng": -71.5924,
    "url": "",
    "codigo_padre": "CL12",
    "poblacion": 143140
  },
  {
    "codigo": "CL134",
    "tipo": "provincia",
    "nombre": "Maipo",
    "lat": -33.7963,
    "lng": -70.7353,
    "url": "",
    "codigo_padre": "CL13",
    "poblacion": 555768
  },
  {
    "codigo": "CL092",
    "tipo": "provincia",
    "nombre": "Malleco",
    "lat": -37.803,
    "lng": -72.7017,
    "url": "",
    "codigo_padre": "CL09",
    "poblacion": 215260
  },
  {
    "codigo": "CL058",
    "tipo": "provincia",
    "nombre": "Marga Marga",
    "lat": -33.065,
    "lng": -71.3711,
    "url": "",
    "codigo_padre": "CL05",
    "poblacion": 375592
  },
  {
    "codigo": "CL135",
    "tipo": "provincia",
    "nombre": "Melipilla",
    "lat": -33.7369,
    "lng": -71.1743,
    "url": "",
    "codigo_padre": "CL13",
    "poblacion": 212326
  },
  {
    "codigo": "CL103",
    "tipo": "provincia",
    "nombre": "Osorno",
    "lat": -40.7369,
    "lng": -72.9849,
    "url": "",
    "codigo_padre": "CL10",
    "poblacion": 247936
  },
  {
    "codigo": "CL104",
    "tipo": "provincia",
    "nombre": "Palena",
    "lat": -43.4449,
    "lng": -72.0923,
    "url": "",
    "codigo_padre": "CL10",
    "poblacion": 19178
  },
  {
    "codigo": "CL152",
    "tipo": "provincia",
    "nombre": "Parinacota",
    "lat": -18.3135,
    "lng": -69.3788,
    "url": "",
    "codigo_padre": "CL15",
    "poblacion": 3325
  },
  {
    "codigo": "CL054",
    "tipo": "provincia",
    "nombre": "Petorca",
    "lat": -32.1965,
    "lng": -70.8318,
    "url": "",
    "codigo_padre": "CL05",
    "poblacion": 83155
  },
  {
    "codigo": "CL163",
    "tipo": "provincia",
    "nombre": "Punilla",
    "lat": -364.261,
    "lng": -719.708,
    "url": "",
    "codigo_padre": "CL16",
    "poblacion": 113020
  },
  {
    "codigo": "CL055",
    "tipo": "provincia",
    "nombre": "Quillota",
    "lat": -32.9009,
    "lng": -71.2947,
    "url": "",
    "codigo_padre": "CL05",
    "poblacion": 219073
  },
  {
    "codigo": "CL142",
    "tipo": "provincia",
    "nombre": "Ranco",
    "lat": -40.4114,
    "lng": -72.4988,
    "url": "",
    "codigo_padre": "CL14",
    "poblacion": 98016
  },
  {
    "codigo": "CL056",
    "tipo": "provincia",
    "nombre": "San Antonio",
    "lat": -33.6648,
    "lng": -71.4597,
    "url": "",
    "codigo_padre": "CL05",
    "poblacion": 181306
  },
  {
    "codigo": "CL057",
    "tipo": "provincia",
    "nombre": "San Felipe de Aconcagua",
    "lat": -32.7464,
    "lng": -70.7489,
    "url": "",
    "codigo_padre": "CL05",
    "poblacion": 166885
  },
  {
    "codigo": "CL131",
    "tipo": "provincia",
    "nombre": "Santiago",
    "lat": -33.4417,
    "lng": -70.6541,
    "url": "",
    "codigo_padre": "CL13",
    "poblacion": 5995995
  },
  {
    "codigo": "CL136",
    "tipo": "provincia",
    "nombre": "Talagante",
    "lat": -33.6665,
    "lng": -70.9331,
    "url": "",
    "codigo_padre": "CL13",
    "poblacion": 337269
  },
  {
    "codigo": "CL071",
    "tipo": "provincia",
    "nombre": "Talca",
    "lat": -35.3921,
    "lng": -71.6125,
    "url": "",
    "codigo_padre": "CL07",
    "poblacion": 449392
  },
  {
    "codigo": "CL014",
    "tipo": "provincia",
    "nombre": "Tamarugal",
    "lat": -39.8567,
    "lng": -72.6089,
    "url": "",
    "codigo_padre": "CL01",
    "poblacion": 29311
  },
  {
    "codigo": "CL123",
    "tipo": "provincia",
    "nombre": "Tierra del Fuego",
    "lat": -53.7422,
    "lng": -69.2249,
    "url": "",
    "codigo_padre": "CL12",
    "poblacion": 8299
  },
  {
    "codigo": "CL023",
    "tipo": "provincia",
    "nombre": "Tocopilla",
    "lat": -22.2306,
    "lng": -69.4666,
    "url": "",
    "codigo_padre": "CL02",
    "poblacion": 34893
  },
  {
    "codigo": "CL124",
    "tipo": "provincia",
    "nombre": "Última Esperanza",
    "lat": -51.0163,
    "lng": -73.4285,
    "url": "",
    "codigo_padre": "CL12",
    "poblacion": 24803
  },
  {
    "codigo": "CL141",
    "tipo": "provincia",
    "nombre": "Valdivia",
    "lat": -39.7811,
    "lng": -72.5098,
    "url": "",
    "codigo_padre": "CL14",
    "poblacion": 307819
  },
  {
    "codigo": "CL051",
    "tipo": "provincia",
    "nombre": "Valparaíso",
    "lat": -33.1381,
    "lng": -71.5617,
    "url": "",
    "codigo_padre": "CL05",
    "poblacion": 809401
  }
]